<svg id="Layer_1" data-name="Layer 1" xmlns="http://www.w3.org/2000/svg" viewBox="0 0 24 24">
  <path class="checkmark-fill" d="M12,2A10,10,0,1,0,22,12,10,10,0,0,0,12,2Zm0,18a8,8,0,1,1,8-8A8,8,0,0,1,12,20Z"/>
  <path class="checkmark-fill" d="M12.5,7H11v6l5.25,3.15L17,14.92l-4.5-2.67Z"/>
</svg>